Change Component Designator: Old Designator=CON1 New Designator=CON2
Change Component Designator: Old Designator=CON2 New Designator=CON3
Change Component Designator: Old Designator=CON3 New Designator=CON4
Change Component Designator: Old Designator=CON4 New Designator=CON5
Change Component Designator: Old Designator=CON5 New Designator=CON6
Change Component Designator: Old Designator=CON6 New Designator=CON7
Change Component Designator: Old Designator=R3 New Designator=R5
Change Component Designator: Old Designator=R4 New Designator=R3
Change Component Designator: Old Designator=R5 New Designator=R4
