Change Physical Footprint: Designator=C1 Old Footprint=1206-CAPACITOR New Footprint=1206-CAPACITOR
Change Physical Footprint: Designator=C2 Old Footprint=0805-CAPACITOR New Footprint=0805-CAPACITOR
Change Physical Footprint: Designator=C3 Old Footprint=0402-CAPACITOR New Footprint=0402-CAPACITOR
Change Physical Footprint: Designator=C4 Old Footprint=0402-CAPACITOR New Footprint=0402-CAPACITOR
Change Physical Footprint: Designator=C5 Old Footprint=0402-CAPACITOR New Footprint=0402-CAPACITOR
Change Physical Footprint: Designator=CON1 Old Footprint=CONN HEADER 2POS 2.54MM VERT New Footprint=CONN HEADER 2POS 2.54MM VERT
Change Physical Footprint: Designator=CON2 Old Footprint=M20-9990346 New Footprint=M20-9990346
Change Physical Footprint: Designator=CON3 Old Footprint=M20-9990346 New Footprint=M20-9990346
Change Physical Footprint: Designator=CON4 Old Footprint=CONN HEADER 2POS 2.54MM VERT New Footprint=CONN HEADER 2POS 2.54MM VERT
Change Physical Footprint: Designator=CON5 Old Footprint=CONN HEADER 6POS 2.54MM VERT New Footprint=CONN HEADER 6POS 2.54MM VERT
Change Physical Footprint: Designator=CON6 Old Footprint=CONN HEADER 2POS 2.54MM VERT New Footprint=CONN HEADER 2POS 2.54MM VERT
Change Physical Footprint: Designator=CON7 Old Footprint=M20-9990346 New Footprint=M20-9990346
Change Physical Footprint: Designator=D1 Old Footprint=0402-DIODO New Footprint=0402-DIODO
Change Physical Footprint: Designator=D2 Old Footprint=0805 New Footprint=0805
Change Physical Footprint: Designator=D3 Old Footprint=0805 New Footprint=0805
Change Physical Footprint: Designator=R1 Old Footprint=0402-RESISTOR New Footprint=0402-RESISTOR
Change Physical Footprint: Designator=R2 Old Footprint=0402-RESISTOR New Footprint=0402-RESISTOR
Change Physical Footprint: Designator=R3 Old Footprint=0402-RESISTOR New Footprint=0402-RESISTOR
Change Physical Footprint: Designator=R4 Old Footprint=0402-RESISTOR New Footprint=0402-RESISTOR
Change Physical Footprint: Designator=R5 Old Footprint=0402-RESISTOR New Footprint=0402-RESISTOR
Change Physical Footprint: Designator=R6 Old Footprint=0402-RESISTOR New Footprint=0402-RESISTOR
Change Physical Footprint: Designator=R7 Old Footprint=0402-RESISTOR New Footprint=0402-RESISTOR
Change Physical Footprint: Designator=R8 Old Footprint=0402-RESISTOR New Footprint=0402-RESISTOR
Change Physical Footprint: Designator=R9 Old Footprint=0402-RESISTOR New Footprint=0402-RESISTOR
Change Physical Footprint: Designator=R10 Old Footprint=0402-RESISTOR New Footprint=0402-RESISTOR
Change Physical Footprint: Designator=R11 Old Footprint=0402-RESISTOR New Footprint=0402-RESISTOR
Change Physical Footprint: Designator=S1 Old Footprint=VXO7803-1000 New Footprint=VXO7803-1000
Change Physical Footprint: Designator=SW1 Old Footprint=TL1105F160Q New Footprint=TL1105F160Q
Change Physical Footprint: Designator=SW2 Old Footprint=TL1105F160Q New Footprint=TL1105F160Q
Change Physical Footprint: Designator=U1 Old Footprint=ESP-WROOM-02 New Footprint=ESP-WROOM-02
