Removed Member From Class: ClassName=Alimentacao_Sinalizacao_Conectores Member=CON3
Change Component Footprint: Designator=S1 Old Footprint=VXO7803-1000 New Footprint=M20-9990346
Added Member To Class: ClassName=Alimentacao_Sinalizacao_Conectores Member=Component CON1 CONN HEADER 2POS 2.54MM VERT
Added Member To Class: ClassName=Comunicacao_Isolamento Member=Component CON2 SIL VERTICAL PC TAIL PIN HEADER
Added Member To Class: ClassName=Comunicacao_Isolamento Member=Component CON4 CONN HEADER 2POS 2.54MM VERT
Added Member To Class: ClassName=Comunicacao_Isolamento Member=Component CON6 CONN HEADER 2POS 2.54MM VERT
Added Member To Class: ClassName=Comunicacao_Isolamento Member=Component R5 RES SMD 560 OHM 5% 1/16W 0402
Added Room: Name=Alimentacao_Sinalizacao_Conectores
Added Room: Name=Comunicacao_Isolamento
