G04*
G04 #@! TF.GenerationSoftware,Altium Limited,Altium Designer,22.4.2 (48)*
G04*
G04 Layer_Color=0*
%FSLAX25Y25*%
%MOIN*%
G70*
G04*
G04 #@! TF.SameCoordinates,877E18DD-4507-4396-8063-627FBD4F682B*
G04*
G04*
G04 #@! TF.FilePolarity,Positive*
G04*
G01*
G75*
%ADD44C,0.00100*%
G36*
X20689Y-1000D02*
X-1000Y-1000D01*
X-1000Y7237D01*
X-341Y7852D01*
X1134Y8889D01*
X2739Y9710D01*
X4443Y10301D01*
X6213Y10650D01*
X8013Y10749D01*
X9810Y10597D01*
X11568Y10197D01*
X13254Y9557D01*
X14835Y8689D01*
X16280Y7610D01*
X17560Y6340D01*
X18652Y4905D01*
X19535Y3333D01*
X20190Y1653D01*
X20605Y-102D01*
X20689Y-1000D01*
X20689D01*
D02*
G37*
D44*
X-56Y3D02*
Y159500D01*
X94432D01*
Y3D01*
X-56D01*
M02*
